decomposition([1, 6, 3, 6, 7, 7, 3, 5, 7, 9, 8, 4, 6, 7, 3, 6, 0, 23, 53, 22, 14, 5, 66, 203, 23, -3, 44, 22.99, 2.3, -100]) is called. Result is: [1, 6, 3, 6, 7, 7, 3, 5, 7, 9, 8, 4, 6, 7, 3] [6, 0, 23, 53, 22, 14, 5, 66, 203, 23, -3, 44, 22.99, 2.3, -100]
decomposition([1, 6, 3, 6, 7, 7, 3, 5, 7, 9, 8, 4, 6, 7, 3]) is called. Result is: [1, 6, 3, 6, 7, 7, 3] [5, 7, 9, 8, 4, 6, 7, 3]
decomposition([1, 6, 3, 6, 7, 7, 3]) is called. Result is: [1, 6, 3] [6, 7, 7, 3]
decomposition([1, 6, 3]) is called. Result is: [1] [6, 3]
decomposition([6, 3]) is called. Result is: [6] [3]
merge( [6] , [3] ) is called.  Result is: [3, 6]
merge( [1] , [3, 6] ) is called.  Result is: [1, 3, 6]
decomposition([6, 7, 7, 3]) is called. Result is: [6, 7] [7, 3]
decomposition([6, 7]) is called. Result is: [6] [7]
merge( [6] , [7] ) is called.  Result is: [6, 7]
decomposition([7, 3]) is called. Result is: [7] [3]
merge( [7] , [3] ) is called.  Result is: [3, 7]
merge( [6, 7] , [3, 7] ) is called.  Result is: [3, 6, 7, 7]
merge( [1, 3, 6] , [3, 6, 7, 7] ) is called.  Result is: [1, 3, 3, 6, 6, 7, 7]
decomposition([5, 7, 9, 8, 4, 6, 7, 3]) is called. Result is: [5, 7, 9, 8] [4, 6, 7, 3]
decomposition([5, 7, 9, 8]) is called. Result is: [5, 7] [9, 8]
decomposition([5, 7]) is called. Result is: [5] [7]
merge( [5] , [7] ) is called.  Result is: [5, 7]
decomposition([9, 8]) is called. Result is: [9] [8]
merge( [9] , [8] ) is called.  Result is: [8, 9]
merge( [5, 7] , [8, 9] ) is called.  Result is: [5, 7, 8, 9]
decomposition([4, 6, 7, 3]) is called. Result is: [4, 6] [7, 3]
decomposition([4, 6]) is called. Result is: [4] [6]
merge( [4] , [6] ) is called.  Result is: [4, 6]
decomposition([7, 3]) is called. Result is: [7] [3]
merge( [7] , [3] ) is called.  Result is: [3, 7]
merge( [4, 6] , [3, 7] ) is called.  Result is: [3, 4, 6, 7]
merge( [5, 7, 8, 9] , [3, 4, 6, 7] ) is called.  Result is: [3, 4, 5, 6, 7, 7, 8, 9]
merge( [1, 3, 3, 6, 6, 7, 7] , [3, 4, 5, 6, 7, 7, 8, 9] ) is called.  Result is: [1, 3, 3, 3, 4, 5, 6, 6, 6, 7, 7, 7, 7, 8, 9]
decomposition([6, 0, 23, 53, 22, 14, 5, 66, 203, 23, -3, 44, 22.99, 2.3, -100]) is called. Result is: [6, 0, 23, 53, 22, 14, 5] [66, 203, 23, -3, 44, 22.99, 2.3, -100]
decomposition([6, 0, 23, 53, 22, 14, 5]) is called. Result is: [6, 0, 23] [53, 22, 14, 5]
decomposition([6, 0, 23]) is called. Result is: [6] [0, 23]
decomposition([0, 23]) is called. Result is: [0] [23]
merge( [0] , [23] ) is called.  Result is: [0, 23]
merge( [6] , [0, 23] ) is called.  Result is: [0, 6, 23]
decomposition([53, 22, 14, 5]) is called. Result is: [53, 22] [14, 5]
decomposition([53, 22]) is called. Result is: [53] [22]
merge( [53] , [22] ) is called.  Result is: [22, 53]
decomposition([14, 5]) is called. Result is: [14] [5]
merge( [14] , [5] ) is called.  Result is: [5, 14]
merge( [22, 53] , [5, 14] ) is called.  Result is: [5, 14, 22, 53]
merge( [0, 6, 23] , [5, 14, 22, 53] ) is called.  Result is: [0, 5, 6, 14, 22, 23, 53]
decomposition([66, 203, 23, -3, 44, 22.99, 2.3, -100]) is called. Result is: [66, 203, 23, -3] [44, 22.99, 2.3, -100]
decomposition([66, 203, 23, -3]) is called. Result is: [66, 203] [23, -3]
decomposition([66, 203]) is called. Result is: [66] [203]
merge( [66] , [203] ) is called.  Result is: [66, 203]
decomposition([23, -3]) is called. Result is: [23] [-3]
merge( [23] , [-3] ) is called.  Result is: [-3, 23]
merge( [66, 203] , [-3, 23] ) is called.  Result is: [-3, 23, 66, 203]
decomposition([44, 22.99, 2.3, -100]) is called. Result is: [44, 22.99] [2.3, -100]
decomposition([44, 22.99]) is called. Result is: [44] [22.99]
merge( [44] , [22.99] ) is called.  Result is: [22.99, 44]
decomposition([2.3, -100]) is called. Result is: [2.3] [-100]
merge( [2.3] , [-100] ) is called.  Result is: [-100, 2.3]
merge( [22.99, 44] , [-100, 2.3] ) is called.  Result is: [-100, 2.3, 22.99, 44]
merge( [-3, 23, 66, 203] , [-100, 2.3, 22.99, 44] ) is called.  Result is: [-100, -3, 2.3, 22.99, 23, 44, 66, 203]
merge( [0, 5, 6, 14, 22, 23, 53] , [-100, -3, 2.3, 22.99, 23, 44, 66, 203] ) is called.  Result is: [-100, -3, 0, 2.3, 5, 6, 14, 22, 22.99, 23, 23, 44, 53, 66, 203]
merge( [1, 3, 3, 3, 4, 5, 6, 6, 6, 7, 7, 7, 7, 8, 9] , [-100, -3, 0, 2.3, 5, 6, 14, 22, 22.99, 23, 23, 44, 53, 66, 203] ) is called.  Result is: [-100, -3, 0, 1, 2.3, 3, 3, 3, 4, 5, 5, 6, 6, 6, 6, 7, 7, 7, 7, 8, 9, 14, 22, 22.99, 23, 23, 44, 53, 66, 203]
Общий результат:  [-100, -3, 0, 1, 2.3, 3, 3, 3, 4, 5, 5, 6, 6, 6, 6, 7, 7, 7, 7, 8, 9, 14, 22, 22.99, 23, 23, 44, 53, 66, 203]
